%YAML 1.1
%TAG !u! tag:unity3d.com,2011:
--- !u!78 &1
TagManager:
  serializedVersion: 2
  tags:
  - Stair
  - Climb
  - Fly
  - Action
  - AutoCrouch
  - Ragdoll
  - Ignore Ragdoll
  - Boss
  - Enemy
  - CompanionAI
  - Weapon
  - LookAt
  - Dirt
  - Wood
  - Metal
  - Concrete
  - Glass
  - Water
  - LadderTrigger
  - ExitWater
  - Barrel
  - FreeClimb
  - ClimbDirection
  - Zipline
  - PlayerUI
  - Collectable
  - CoverPoint
  - Interactable
  - AIAction
  - Terrain
  - Animal
  layers:
  - Default
  - TransparentFX
  - Ignore Raycast
  - 
  - Water
  - UI
  - 
  - 
  - Player
  - Enemy
  - CompanionAI
  - Triggers
  - StopMove
  - Action
  - HeadTrack
  - BodyPart
  - BlockAIRayCast
  - 
  - 
  - 
  - Animal
  - 
  - 
  - 
  - 
  - 
  - 
  - 
  - 
  - 
  - Item
  - 
  m_SortingLayers:
  - name: Default
    uniqueID: 0
    locked: 0
